11011
11111
41115
11111
11311
3313355155
3333355555
4333535550
3333355555
3323355255
     2252200500
     2222200000
     3222020001
     2222200000
     2242200400
          44044
          44444
          24441
          44444
          44344

12L12R12